ESF - Araras
…
A tabela abaixo permite verificar quanto tempo em média o profissional permanece cada localidade.

df |> 
  group_by(uf_sigla, municipio_pad, FANTASIA) |> 
  count() |> 
  mutate(anos = n/12) |> 
  rename(meses = n) |> 
  arrange(desc(meses))

# A tibble: 29 × 5
# Groups:   uf_sigla, municipio_pad, FANTASIA [29]
   uf_sigla municipio_pad FANTASIA                                   meses  anos
   <chr>    <chr>         <chr>                                      <int> <dbl>
 1 SP       ARARAS        ESF ZONA RURAL ARARAS                        220 18.3 
 2 SP       PIRACICABA    HOSPITAL DOS FORNECEDORES DE CANA DE PIRA…   104  8.67
 3 SP       CAMPINAS      UNIDADE DE PRONTO ATENDIMENTO ANCHIETA ME…    79  6.58
 4 SP       ARARAS        HOSPITAL SAO LUIZ DE ARARAS                   70  5.83
 5 SP       PIRACICABA    HOSPITAL REGIONAL DE PIRACICABA               67  5.58
 6 SP       RIO CLARO     HOSPITAL SANTA FILOMENA DE RIO CLARO          38  3.17
 7 SP       VALINHOS      UNIDADE DE PRONTO ATENDIMENTO UPA 24 HORAS    31  2.58
 8 SP       SAO PAULO     HOSP MUN DR CARMINO CARICCHIO                 24  2   
 9 SP       CAMPINAS      UNIDADE DE PRONTO ATENDIMENTO SAO JOSE        20  1.67
10 SP       CAMPINAS      CENTRAL DE REGULACAO MEDICA DE URGENCIAS      18  1.5 
# ℹ 19 more rows
